%YAML 1.1
%TAG !u! tag:unity3d.com,2011:
--- !u!114 &11400000
MonoBehaviour:
  m_ObjectHideFlags: 0
  m_PrefabParentObject: {fileID: 0}
  m_PrefabInternal: {fileID: 0}
  m_GameObject: {fileID: 0}
  m_Enabled: 1
  m_EditorHideFlags: 0
  m_Script: {fileID: 11500000, guid: 610e599a5cd6e4c4b9664c0ab978b77e, type: 3}
  m_Name: SingleAssemblage
  m_EditorClassIdentifier: 
  forgerPrefabs:
  - Name: Visionary
    Prefab: {fileID: 1000010058601550, guid: 7afd39d8112890045b8961d03595a45d, type: 2}
  - Name: Warcardinal
    Prefab: {fileID: 1000010058601550, guid: 3a9fb3b1fd646474c99cd686aacdb850, type: 2}
  - Name: Nomad
    Prefab: {fileID: 1000010058601550, guid: 952d492dbbba93f48b8aac6dec15ccb7, type: 2}
  - Name: Ember
    Prefab: {fileID: 1000010058601550, guid: a14ccb49521045247a76f4d0f281ea90, type: 2}
  minionPrefabs:
  - spec: 77
    team: 2
    prefab: {fileID: 1872702127704536, guid: aa975c3d75b9247f08737538e273bbdd, type: 2}
  - spec: 82
    team: 2
    prefab: {fileID: 1872702127704536, guid: 5b7389b13185a44ab837c9496ae03466, type: 2}
  - spec: 77
    team: 1
    prefab: {fileID: 1642868844367698, guid: 698cde9a9862f4800a9012f7a94d3cd5, type: 2}
  - spec: 82
    team: 1
    prefab: {fileID: 1642868844367698, guid: 2e5a66ee332264cc1a71676065f8cca7, type: 2}
  towerPrefabs:
  - spec: 0
    team: 1
    prefab: {fileID: 1248475499668498, guid: 93686d06b0f1d42029a4621b9c82a1de, type: 2}
  - spec: 0
    team: 2
    prefab: {fileID: 1248475499668498, guid: 93686d06b0f1d42029a4621b9c82a1de, type: 2}
  - spec: 0
    team: 0
    prefab: {fileID: 1248475499668498, guid: 93686d06b0f1d42029a4621b9c82a1de, type: 2}
