%YAML 1.1
%TAG !u! tag:unity3d.com,2011:
--- !u!114 &11400000
MonoBehaviour:
  m_ObjectHideFlags: 0
  m_PrefabParentObject: {fileID: 0}
  m_PrefabInternal: {fileID: 0}
  m_GameObject: {fileID: 0}
  m_Enabled: 1
  m_EditorHideFlags: 0
  m_Script: {fileID: 11500000, guid: 589efaaa6c3954533a31431fb5e323b9, type: 3}
  m_Name: Fist Of Ouros
  m_EditorClassIdentifier: 
  Name: the_fist_of_ouros
  StatsByLevel: []
  Level: 1
  NumberOfStacks: 1
  BasicAttackAnimationOverride: 
  DeathBehaviourOverride: 0
  CurrentCooldown: 0
  Cooldowns:
  - 1
  - 1
  - 1
  fistofOurosCooldown:
  - 1
  - 1
  - 1
  fistofOurosRange: 375
  fistofOurosWidth: 250
  fistofOurosBaseDamage:
  - 1
  - 1
  - 1
  fistofOurosPowerScaling: 0.5
  fistofOurosKnockbackDistance: 150
  fistofOurosKnockbackHeight: 100
  fistofOurosKnockbackDuration: 0.5
  fistofOurosDebuff: {fileID: 0}
  fistofOurosStunDuration: 1.5
