%YAML 1.1
%TAG !u! tag:unity3d.com,2011:
--- !u!114 &11400000
MonoBehaviour:
  m_ObjectHideFlags: 0
  m_PrefabParentObject: {fileID: 0}
  m_PrefabInternal: {fileID: 0}
  m_GameObject: {fileID: 0}
  m_Enabled: 1
  m_EditorHideFlags: 0
  m_Script: {fileID: 11500000, guid: de91c7133fed646f6bb1b7ffc26a7ad9, type: 3}
  m_Name: Sinbrand Debuff
  m_EditorClassIdentifier: 
  Name: heretic
  StatsByLevel: []
  Level: 1
  BasicAttackAnimationOverride: 
  DeathBehaviourOverride: 0
  Cooldowns:
  - 0
  Source: {fileID: 0}
  Target: {fileID: 0}
  Parent: {fileID: 0}
  StaticStats:
    Power: 0
    Haste: 0
    Mastery: 0
    Penetration: 0
    Lifedrain: 0
    Tenacity: 0
    BaseAttackTime: 0
    AttackRange: 0
    MaxHealth: 0
    HealthRegen: 0
    AutoAttackDamage: 0
    AttackSpeed: 0
    Armor: 0
    Resistance: 0
    CooldownReduction: 0
    BonusCriticalDamage: 0
    MovementSpeed: 0
    HephisaltBounty: 0
    ExperienceBounty: 0
  PercentileStaticStats:
    Power: 0
    Haste: 0
    Mastery: 0
    Penetration: 0
    Lifedrain: 0
    Tenacity: 0
    BaseAttackTime: 0
    AttackRange: 0
    MaxHealth: 0
    HealthRegen: 0
    AutoAttackDamage: 0
    AttackSpeed: 0
    Armor: 0
    Resistance: 0
    CooldownReduction: 0
    BonusCriticalDamage: 0
    MovementSpeed: 0
    HephisaltBounty: 0
    ExperienceBounty: 0
  MaximumStacks: 1
  NoMaxStacks: 0
  HolderIsStructure: 0
  IsAura: 0
  AuraRadius: 0
  duration: 2
  AffectedByTenacity: 0
  DoNotRefreshOnStack: 0
  DropOffAltogether: 0
  sinbrandCooldown:
  - 1
  - 1
  - 1
  - 1
  - 1
  sinbrandRange: 450
  sinbrandBaseDamage:
  - 1
  - 1
  - 1
  - 1
  - 1
  sinbrandPowerScaling: 0.5
  sinbrandIsEmpowered: 0
  sinbrandDebuff: {fileID: 0}
  sinbrandDebuffDuration: 2
  sinbrandPercentDamageIncrease:
  - 0.04
  - 0.05
  - 0.06
  - 0.07
  - 0.08
  sinbrandEmpoweredDebuff: {fileID: 0}
  sinbrandEmpoweredDebuffDuration: 2
  sinbrandEmpoweredBoost: 30
  sinbrandMoveBoostDuration: 0.5
