%YAML 1.1
%TAG !u! tag:unity3d.com,2011:
--- !u!114 &11400000
MonoBehaviour:
  m_ObjectHideFlags: 0
  m_PrefabParentObject: {fileID: 0}
  m_PrefabInternal: {fileID: 0}
  m_GameObject: {fileID: 0}
  m_Enabled: 1
  m_EditorHideFlags: 0
  m_Script: {fileID: 11500000, guid: 37306384918fe4b1c9c5bf3349b34b61, type: 3}
  m_Name: Fate
  m_EditorClassIdentifier: 
  Name: Fate
  Tier: 2
  Cost: 1500
  icon: {fileID: 21300000, guid: c9f7d23a6d30f9b41b9de4caf0108fda, type: 3}
  Parent:
  - 
  BuildsFrom:
  - {fileID: 11400000, guid: 968bbc1ec0a7649c9bdb9e32a66c49a8, type: 2}
  Child:
  - 
  - 
  BuildsInto: []
  PassiveName: 
  PassiveDesc: Dealing damage to an enemy slows them by 15% for 1 second. This works
    once per enemy every 4 seconds.
  isFirstInstance: 1
  additionalStacks: 0
  ListStats: 07000000
  StaticItemStats:
    Power: 0
    Haste: 35
    Mastery: 0
    Penetration: 0
    Lifedrain: 0
    Tenacity: 0
    BaseAttackTime: 0
    AttackRange: 0
    MaxHealth: 0
    HealthRegen: 0
    AutoAttackDamage: 0
    AttackSpeed: 0
    Armor: 0
    Resistance: 0
    CooldownReduction: 0
    BonusCriticalDamage: 0
    MovementSpeed: 0
    HephisaltBounty: 0
    ExperienceBounty: 0
  PercentItemStats:
    Power: 0
    Haste: 0
    Mastery: 0
    Penetration: 0
    Lifedrain: 0
    Tenacity: 0
    BaseAttackTime: 0
    AttackRange: 0
    MaxHealth: 0
    HealthRegen: 0
    AutoAttackDamage: 0
    AttackSpeed: 0
    Armor: 0
    Resistance: 0
    CooldownReduction: 0
    BonusCriticalDamage: 0
    MovementSpeed: 0
    HephisaltBounty: 0
    ExperienceBounty: 0
  UniquePassive: {fileID: 11400000, guid: 76aa0a80a2da90c429b2726c76d222d9, type: 2}
  StackablePassive: {fileID: 0}
