%YAML 1.1
%TAG !u! tag:unity3d.com,2011:
--- !u!114 &11400000
MonoBehaviour:
  m_ObjectHideFlags: 0
  m_PrefabParentObject: {fileID: 0}
  m_PrefabInternal: {fileID: 0}
  m_GameObject: {fileID: 0}
  m_Enabled: 1
  m_EditorHideFlags: 0
  m_Script: {fileID: 11500000, guid: 37306384918fe4b1c9c5bf3349b34b61, type: 3}
  m_Name: Zeal
  m_EditorClassIdentifier: 
  Name: Zeal
  Tier: 2
  Cost: 1200
  icon: {fileID: 21300000, guid: c49d3328ace9afb4a9a5c6cfeb6ded69, type: 3}
  Parent:
  - 
  BuildsFrom:
  - {fileID: 11400000, guid: 968bbc1ec0a7649c9bdb9e32a66c49a8, type: 2}
  Child:
  - 
  - 
  BuildsInto: []
  PassiveName: Zeal
  PassiveDesc: Dealing damage to an enemy Forger marks them for 4 seconds. The next
    allied Forger to damage them within that timeframe gains 20 bonus movement speed
    for 2 seconds and the mark is consumed. Ally must wait 16 seconds between buffs.
  isFirstInstance: 1
  additionalStacks: 0
  ListStats: 07000000
  StaticItemStats:
    Power: 0
    Haste: 30
    Mastery: 0
    Penetration: 0
    Lifedrain: 0
    Tenacity: 0
    BaseAttackTime: 0
    AttackRange: 0
    MaxHealth: 0
    HealthRegen: 0
    AutoAttackDamage: 0
    AttackSpeed: 0
    Armor: 0
    Resistance: 0
    CooldownReduction: 0
    BonusCriticalDamage: 0
    MovementSpeed: 0
    HephisaltBounty: 0
    ExperienceBounty: 0
  PercentItemStats:
    Power: 0
    Haste: 0
    Mastery: 0
    Penetration: 0
    Lifedrain: 0
    Tenacity: 0
    BaseAttackTime: 0
    AttackRange: 0
    MaxHealth: 0
    HealthRegen: 0
    AutoAttackDamage: 0
    AttackSpeed: 0
    Armor: 0
    Resistance: 0
    CooldownReduction: 0
    BonusCriticalDamage: 0
    MovementSpeed: 0
    HephisaltBounty: 0
    ExperienceBounty: 0
  UniquePassive: {fileID: 0}
  StackablePassive: {fileID: 11400000, guid: 1b075ee5f21a3cb4596d7614ad0a63b1, type: 2}
