%YAML 1.1
%TAG !u! tag:unity3d.com,2011:
--- !u!114 &11400000
MonoBehaviour:
  m_ObjectHideFlags: 0
  m_PrefabParentObject: {fileID: 0}
  m_PrefabInternal: {fileID: 0}
  m_GameObject: {fileID: 0}
  m_Enabled: 1
  m_EditorHideFlags: 0
  m_Script: {fileID: 11500000, guid: 37306384918fe4b1c9c5bf3349b34b61, type: 3}
  m_Name: Time
  m_EditorClassIdentifier: 
  Name: Time
  Tier: 1
  Cost: 300
  icon: {fileID: 21300000, guid: f51ee0a3279d2c4499cd930a2af084ba, type: 3}
  Parent:
  - 
  BuildsFrom: []
  Child:
  - 
  - 
  BuildsInto:
  - {fileID: 11400000, guid: a89c8ba8d5f3a4c62ab46a0e46baaa07, type: 2}
  - {fileID: 11400000, guid: 9a28ee931ebd85044b5703986965ca56, type: 2}
  - {fileID: 11400000, guid: 5f577e2f80150f04f88c3e653a4e0428, type: 2}
  - {fileID: 11400000, guid: ba5e5539177ca8c4ba612e12a23c7d8d, type: 2}
  PassiveName: 
  PassiveDesc: 
  isFirstInstance: 1
  additionalStacks: 0
  ListStats: 07000000
  StaticItemStats:
    Power: 0
    Haste: 10
    Mastery: 0
    Penetration: 0
    Lifedrain: 0
    Tenacity: 0
    BaseAttackTime: 0
    AttackRange: 0
    MaxHealth: 0
    HealthRegen: 0
    AutoAttackDamage: 0
    AttackSpeed: 0
    Armor: 0
    Resistance: 0
    CooldownReduction: 0
    BonusCriticalDamage: 0
    MovementSpeed: 0
    HephisaltBounty: 0
    ExperienceBounty: 0
  PercentItemStats:
    Power: 0
    Haste: 0
    Mastery: 0
    Penetration: 0
    Lifedrain: 0
    Tenacity: 0
    BaseAttackTime: 0
    AttackRange: 0
    MaxHealth: 0
    HealthRegen: 0
    AutoAttackDamage: 0
    AttackSpeed: 0
    Armor: 0
    Resistance: 0
    CooldownReduction: 0
    BonusCriticalDamage: 0
    MovementSpeed: 0
    HephisaltBounty: 0
    ExperienceBounty: 0
  UniquePassive: {fileID: 0}
  StackablePassive: {fileID: 0}
