%YAML 1.1
%TAG !u! tag:unity3d.com,2011:
--- !u!114 &11400000
MonoBehaviour:
  m_ObjectHideFlags: 0
  m_PrefabParentObject: {fileID: 0}
  m_PrefabInternal: {fileID: 0}
  m_GameObject: {fileID: 0}
  m_Enabled: 1
  m_EditorHideFlags: 0
  m_Script: {fileID: 11500000, guid: 9dc67f80b0e884129b913b9d292c97a0, type: 3}
  m_Name: Intensive Study
  m_EditorClassIdentifier: 
  Name: intensive_study
  StatsByLevel: []
  Level: 1
  NumberOfStacks: 1
  BasicAttackAnimationOverride: 
  DeathBehaviourOverride: 0
  CurrentCooldown: 0
  Cooldowns:
  - 1
  - 1
  - 1
  - 1
  - 1
  intensiveStudyCooldown:
  - 1
  - 1
  - 1
  - 1
  - 1
  intensiveStudyDebuff: {fileID: 11400000, guid: e206913dcc82841049d24243b0ca2c1f,
    type: 2}
  intensiveStudyDebuffDuration: 5
  intensiveStudyReducePower: 0
  intensiveStudyReapply: 0
  intensiveStudyPowerReduction:
  - 1
  - 1
  - 1
  - 1
  - 1
  intensiveStudyResistanceReduction:
  - 1
  - 1
  - 1
  - 1
  - 1
  intensiveStudyDebuffAmp: 2
  intensiveStudyReappDuration: 2.5
