%YAML 1.1
%TAG !u! tag:unity3d.com,2011:
--- !u!114 &11400000
MonoBehaviour:
  m_ObjectHideFlags: 0
  m_PrefabParentObject: {fileID: 0}
  m_PrefabInternal: {fileID: 0}
  m_GameObject: {fileID: 0}
  m_Enabled: 1
  m_EditorHideFlags: 0
  m_Script: {fileID: 11500000, guid: 37306384918fe4b1c9c5bf3349b34b61, type: 3}
  m_Name: Confidence
  m_EditorClassIdentifier: 
  Name: Confidence
  Tier: 2
  Cost: 1500
  icon: {fileID: 21300000, guid: c7ce648872b37e9499b7d668c0a5037f, type: 3}
  Parent:
  - 
  BuildsFrom:
  - {fileID: 11400000, guid: 9689d261af5074b19ba3536cf5601d89, type: 2}
  Child:
  - 
  - 
  BuildsInto: []
  PassiveName: Confidence
  PassiveDesc: Whenever you deal damage to an enemy unit, redure their Resistance
    by 3 for 5 seconds. This stacks up to 4 times.
  isFirstInstance: 1
  additionalStacks: 0
  ListStats: 0300000004000000
  StaticItemStats:
    Power: 20
    Haste: 0
    Mastery: 0
    Penetration: 0
    Lifedrain: 0
    Tenacity: 0
    BaseAttackTime: 0
    AttackRange: 0
    MaxHealth: 0
    HealthRegen: 0
    AutoAttackDamage: 0
    AttackSpeed: 0
    Armor: 0
    Resistance: 35
    CooldownReduction: 0
    BonusCriticalDamage: 0
    MovementSpeed: 0
    HephisaltBounty: 0
    ExperienceBounty: 0
  PercentItemStats:
    Power: 0
    Haste: 0
    Mastery: 0
    Penetration: 0
    Lifedrain: 0
    Tenacity: 0
    BaseAttackTime: 0
    AttackRange: 0
    MaxHealth: 0
    HealthRegen: 0
    AutoAttackDamage: 0
    AttackSpeed: 0
    Armor: 0
    Resistance: 0
    CooldownReduction: 0
    BonusCriticalDamage: 0
    MovementSpeed: 0
    HephisaltBounty: 0
    ExperienceBounty: 0
  UniquePassive: {fileID: 0}
  StackablePassive: {fileID: 11400000, guid: f53d563a0ee42f948b25bf3906e42a27, type: 2}
