%YAML 1.1
%TAG !u! tag:unity3d.com,2011:
--- !u!114 &11400000
MonoBehaviour:
  m_ObjectHideFlags: 0
  m_PrefabParentObject: {fileID: 0}
  m_PrefabInternal: {fileID: 0}
  m_GameObject: {fileID: 0}
  m_Enabled: 1
  m_EditorHideFlags: 0
  m_Script: {fileID: 11500000, guid: b5ad97e59d7e3d04694aab68db65c784, type: 3}
  m_Name: Cold Steel
  m_EditorClassIdentifier: 
  Name: Cold Steel
  Icon: {fileID: 21300000, guid: 0679ca34f1f3fc14f997df43e8671cb0, type: 3}
  Level: 1
  BasicAttackAnimationOverride: 
  DeathBehaviourOverride: 0
  Cooldowns:
  - 10
  - 10
  - 10
  - 10
  - 10
  ColdSteelBuff: {fileID: 11400000, guid: 6a4f19614bcaa7e4780630576917c314, type: 2}
