%YAML 1.1
%TAG !u! tag:unity3d.com,2011:
--- !u!114 &11400000
MonoBehaviour:
  m_ObjectHideFlags: 0
  m_PrefabParentObject: {fileID: 0}
  m_PrefabInternal: {fileID: 0}
  m_GameObject: {fileID: 0}
  m_Enabled: 1
  m_EditorHideFlags: 0
  m_Script: {fileID: 11500000, guid: be2985c07042c44cd8f139fb29e839ab, type: 3}
  m_Name: Ember
  m_EditorClassIdentifier: 
  kitName: Ember
  attackHitTime: 0.2
  passives:
  - {fileID: 11400000, guid: 7f7054938e31a7f4187a126ecd13a884, type: 2}
  - {fileID: 11400000, guid: 0104bf9fdfef08f408dfd29bae0ff670, type: 2}
  skills:
  - skill: {fileID: 11400000, guid: 3863f1782b124994fa04b6123c1a41b3, type: 2}
    slot: 1
  - skill: {fileID: 11400000, guid: c14733f9b2496a449ad4e0cb83eb3f2d, type: 2}
    slot: 2
  - skill: {fileID: 11400000, guid: 73b0e10f7d0a221469f6b84fdd2b901b, type: 2}
    slot: 3
  - skill: {fileID: 11400000, guid: 741e929dd54e5254c814b4695d354066, type: 2}
    slot: 4
  resourceFrame: {fileID: 11400000, guid: e6262e3a3623d4df0b696d38ecc86253, type: 2}
  archetype: {fileID: 11400000, guid: bd0683cdbadab48d5b3e869ddce3b69f, type: 2}
  face: {fileID: 21300000, guid: 05c1da6d16ac2c04caa216797cf4f2dc, type: 3}
