%YAML 1.1
%TAG !u! tag:unity3d.com,2011:
--- !u!114 &11400000
MonoBehaviour:
  m_ObjectHideFlags: 0
  m_PrefabParentObject: {fileID: 0}
  m_PrefabInternal: {fileID: 0}
  m_GameObject: {fileID: 0}
  m_Enabled: 1
  m_EditorHideFlags: 0
  m_Script: {fileID: 11500000, guid: 37306384918fe4b1c9c5bf3349b34b61, type: 3}
  m_Name: Sympathy
  m_EditorClassIdentifier: 
  Name: Sympathy
  Tier: 2
  Cost: 900
  icon: {fileID: 21300000, guid: 2a4f543d8beefec48a4a691ffa5f7b60, type: 3}
  Parent:
  - 
  BuildsFrom:
  - {fileID: 11400000, guid: 724bc121be7af460ba5c0af1800fd9cd, type: 2}
  Child:
  - 
  - 
  BuildsInto: []
  PassiveName: Sympathy
  PassiveDesc: 'Stackable: Every 15 seconds, you heal the lowest health ally nearby
    for 25 health'
  isFirstInstance: 1
  additionalStacks: 0
  ListStats: 00000000
  StaticItemStats:
    Power: 0
    Haste: 0
    Mastery: 0
    Penetration: 0
    Lifedrain: 0
    Tenacity: 0
    BaseAttackTime: 0
    AttackRange: 0
    MaxHealth: 225
    HealthRegen: 0
    AutoAttackDamage: 0
    AttackSpeed: 0
    Armor: 0
    Resistance: 0
    CooldownReduction: 0
    BonusCriticalDamage: 0
    MovementSpeed: 0
    HephisaltBounty: 0
    ExperienceBounty: 0
  PercentItemStats:
    Power: 0
    Haste: 0
    Mastery: 0
    Penetration: 0
    Lifedrain: 0
    Tenacity: 0
    BaseAttackTime: 0
    AttackRange: 0
    MaxHealth: 0
    HealthRegen: 0
    AutoAttackDamage: 0
    AttackSpeed: 0
    Armor: 0
    Resistance: 0
    CooldownReduction: 0
    BonusCriticalDamage: 0
    MovementSpeed: 0
    HephisaltBounty: 0
    ExperienceBounty: 0
  UniquePassive: {fileID: 0}
  StackablePassive: {fileID: 11400000, guid: 24ac0b517c0b4c44997fe7df56a0bc67, type: 2}
